[ {
  "uid" : "42dd09f52abcff6a",
  "name" : "BowlPostCreate",
  "time" : {
    "start" : 1558958175370,
    "stop" : 1558958212518,
    "duration" : 37148
  },
  "status" : "passed",
  "severity" : "normal"
}, {
  "uid" : "d833f14e96f2ad12",
  "name" : "DMTest",
  "time" : {
    "start" : 1558958311905,
    "stop" : 1558958357883,
    "duration" : 45978
  },
  "status" : "passed",
  "severity" : "normal"
}, {
  "uid" : "8b0197dc901b6c02",
  "name" : "Bookmarks",
  "time" : {
    "start" : 1558958292890,
    "stop" : 1558958311894,
    "duration" : 19004
  },
  "status" : "passed",
  "severity" : "normal"
}, {
  "uid" : "eba9d9fe208befb4",
  "name" : "BowlCreate",
  "time" : {
    "start" : 1558958155132,
    "stop" : 1558958175360,
    "duration" : 20228
  },
  "status" : "passed",
  "severity" : "normal"
}, {
  "uid" : "cf5bf513d831feef",
  "name" : "Registration",
  "time" : {
    "start" : 1558958069314,
    "stop" : 1558958154897,
    "duration" : 85583
  },
  "status" : "passed",
  "severity" : "normal"
}, {
  "uid" : "410269e65df8bb84",
  "name" : "CommentsAndLikes",
  "time" : {
    "start" : 1558958212537,
    "stop" : 1558958241473,
    "duration" : 28936
  },
  "status" : "passed",
  "severity" : "normal"
}, {
  "uid" : "9c9fb89968b0aaf5",
  "name" : "EditProfile",
  "time" : {
    "start" : 1558958241490,
    "stop" : 1558958292881,
    "duration" : 51391
  },
  "status" : "passed",
  "severity" : "normal"
} ]